simulate.log
Vivado Simulator 2018.3
Time resolution is 1 ps
7d00 00001 7d00 100000 00000
7e00 00001 7e00 010000 00000
7c00 00001 0000 000100 00000
fc00 00001 8000 000100 00000
0000 00001 7c00 001000 00010
8000 00001 fc00 001000 00010
7bff 00001 0100 000010 10000
0001 00001 7c00 001000 00100
0002 00001 7c00 001000 00100
0004 00001 7c00 001000 00100
0008 00001 7c00 001000 00100
0010 00001 7c00 001000 00100
0020 00001 7c00 001000 00100
0040 00001 7c00 001000 00100
0080 00001 7c00 001000 00100
0100 00001 7c00 001000 00100
0200 00001 7800 000001 00000
3c00 00001 3c00 000001 00000
bc00 00001 bc00 000001 00000
0514 00001 724d 000001 10000
4248 00001 3518 000001 10000
5710 00001 2088 000001 10000
7fa00000 00001 7fa00000 100000 00000
7fc00000 00001 7fc00000 010000 00000
7f800000 00001 00000000 000100 00000
ff800000 00001 80000000 000100 00000
00000000 00001 7f800000 001000 00010
80000000 00001 ff800000 001000 00010
7f7fffff 00001 00200000 000010 10000
00000001 00001 7f800000 001000 00100
00000002 00001 7f800000 001000 00100
00000004 00001 7f800000 001000 00100
00000008 00001 7f800000 001000 00100
00000010 00001 7f800000 001000 00100
00000020 00001 7f800000 001000 00100
00000040 00001 7f800000 001000 00100
00000080 00001 7f800000 001000 00100
00000100 00001 7f800000 001000 00100
00000200 00001 7f800000 001000 00100
00000400 00001 7f800000 001000 00100
00000800 00001 7f800000 001000 00100
00001000 00001 7f800000 001000 00100
00002000 00001 7f800000 001000 00100
00004000 00001 7f800000 001000 00100
00008000 00001 7f800000 001000 00100
00010000 00001 7f800000 001000 00100
00020000 00001 7f800000 001000 00100
00040000 00001 7f800000 001000 00100
00080000 00001 7f800000 001000 00100
00100000 00001 7f800000 001000 00100
00200000 00001 7f800000 001000 00100
00400000 00001 7f000000 000001 00000
3f800000 00001 3f800000 000001 00000
bf800000 00001 bf800000 000001 00000
40490fdb 00001 3ea2f983 000001 10000
42e20000 00001 3c10fdbc 000001 10000
7ff4000000000000 00001 7ff4000000000000 100000 00000
7ff8000000000000 00001 7ff8000000000000 010000 00000
7ff0000000000000 00001 0000000000000000 000100 00000
fff0000000000000 00001 8000000000000000 000100 00000
0000000000000000 00001 7ff0000000000000 001000 00010
8000000000000000 00001 fff0000000000000 001000 00010
7fefffffffffffff 00001 0004000000000000 000010 10000
0000000000000001 00001 7ff0000000000000 001000 00100
0000000000000002 00001 7ff0000000000000 001000 00100
0000000000000004 00001 7ff0000000000000 001000 00100
0000000000000008 00001 7ff0000000000000 001000 00100
0000000000000010 00001 7ff0000000000000 001000 00100
0000000000000020 00001 7ff0000000000000 001000 00100
0000000000000040 00001 7ff0000000000000 001000 00100
0000000000000080 00001 7ff0000000000000 001000 00100
0000000000000100 00001 7ff0000000000000 001000 00100
0000000000000200 00001 7ff0000000000000 001000 00100
0000000000000400 00001 7ff0000000000000 001000 00100
0000000000000800 00001 7ff0000000000000 001000 00100
0000000000001000 00001 7ff0000000000000 001000 00100
0000000000002000 00001 7ff0000000000000 001000 00100
0000000000004000 00001 7ff0000000000000 001000 00100
0000000000008000 00001 7ff0000000000000 001000 00100
0000000000010000 00001 7ff0000000000000 001000 00100
0000000000020000 00001 7ff0000000000000 001000 00100
0000000000040000 00001 7ff0000000000000 001000 00100
0000000000080000 00001 7ff0000000000000 001000 00100
0000000000100000 00001 7ff0000000000000 001000 00100
0000000000200000 00001 7ff0000000000000 001000 00100
0000000000400000 00001 7ff0000000000000 001000 00100
0000000000800000 00001 7ff0000000000000 001000 00100
0000000001000000 00001 7ff0000000000000 001000 00100
0000000002000000 00001 7ff0000000000000 001000 00100
0000000004000000 00001 7ff0000000000000 001000 00100
0000000008000000 00001 7ff0000000000000 001000 00100
0000000010000000 00001 7ff0000000000000 001000 00100
0000000020000000 00001 7ff0000000000000 001000 00100
0000000040000000 00001 7ff0000000000000 001000 00100
0000000080000000 00001 7ff0000000000000 001000 00100
0000000100000000 00001 7ff0000000000000 001000 00100
0000000200000000 00001 7ff0000000000000 001000 00100
0000000400000000 00001 7ff0000000000000 001000 00100
0000000800000000 00001 7ff0000000000000 001000 00100
0000001000000000 00001 7ff0000000000000 001000 00100
0000002000000000 00001 7ff0000000000000 001000 00100
0000004000000000 00001 7ff0000000000000 001000 00100
0000008000000000 00001 7ff0000000000000 001000 00100
0000010000000000 00001 7ff0000000000000 001000 00100
0000020000000000 00001 7ff0000000000000 001000 00100
0000040000000000 00001 7ff0000000000000 001000 00100
0000080000000000 00001 7ff0000000000000 001000 00100
0000100000000000 00001 7ff0000000000000 001000 00100
0000200000000000 00001 7ff0000000000000 001000 00100
0000400000000000 00001 7ff0000000000000 001000 00100
0000800000000000 00001 7ff0000000000000 001000 00100
0001000000000000 00001 7ff0000000000000 001000 00100
0002000000000000 00001 7ff0000000000000 001000 00100
0004000000000000 00001 7ff0000000000000 001000 00100
0008000000000000 00001 7fe0000000000000 000001 00000
3ff0000000000000 00001 3ff0000000000000 000001 00000
bff0000000000000 00001 bff0000000000000 000001 00000
400921fb54442d18 00001 3fd45f306dc9c883 000001 10000
405c400000000000 00001 3f821fb78121fb78 000001 10000
7fff4000000000000000000000000000 00001 7fff4000000000000000000000000000 100000 00000
7fff8000000000000000000000000000 00001 7fff8000000000000000000000000000 010000 00000
7fff0000000000000000000000000000 00001 00000000000000000000000000000000 000100 00000
ffff0000000000000000000000000000 00001 80000000000000000000000000000000 000100 00000
00000000000000000000000000000000 00001 7fff0000000000000000000000000000 001000 00010
80000000000000000000000000000000 00001 ffff0000000000000000000000000000 001000 00010
7ffeffffffffffffffffffffffffffff 00001 00004000000000000000000000000000 000010 10000
00000000000000000000000000000001 00001 7fff0000000000000000000000000000 001000 00100
00000000000000000000000000000002 00001 7fff0000000000000000000000000000 001000 00100
00000000000000000000000000000004 00001 7fff0000000000000000000000000000 001000 00100
00000000000000000000000000000008 00001 7fff0000000000000000000000000000 001000 00100
00000000000000000000000000000010 00001 7fff0000000000000000000000000000 001000 00100
00000000000000000000000000000020 00001 7fff0000000000000000000000000000 001000 00100
00000000000000000000000000000040 00001 7fff0000000000000000000000000000 001000 00100
00000000000000000000000000000080 00001 7fff0000000000000000000000000000 001000 00100
00000000000000000000000000000100 00001 7fff0000000000000000000000000000 001000 00100
00000000000000000000000000000200 00001 7fff0000000000000000000000000000 001000 00100
00000000000000000000000000000400 00001 7fff0000000000000000000000000000 001000 00100
00000000000000000000000000000800 00001 7fff0000000000000000000000000000 001000 00100
00000000000000000000000000001000 00001 7fff0000000000000000000000000000 001000 00100
00000000000000000000000000002000 00001 7fff0000000000000000000000000000 001000 00100
00000000000000000000000000004000 00001 7fff0000000000000000000000000000 001000 00100
00000000000000000000000000008000 00001 7fff0000000000000000000000000000 001000 00100
00000000000000000000000000010000 00001 7fff0000000000000000000000000000 001000 00100
00000000000000000000000000020000 00001 7fff0000000000000000000000000000 001000 00100
00000000000000000000000000040000 00001 7fff0000000000000000000000000000 001000 00100
00000000000000000000000000080000 00001 7fff0000000000000000000000000000 001000 00100
00000000000000000000000000100000 00001 7fff0000000000000000000000000000 001000 00100
00000000000000000000000000200000 00001 7fff0000000000000000000000000000 001000 00100
00000000000000000000000000400000 00001 7fff0000000000000000000000000000 001000 00100
00000000000000000000000000800000 00001 7fff0000000000000000000000000000 001000 00100
00000000000000000000000001000000 00001 7fff0000000000000000000000000000 001000 00100
00000000000000000000000002000000 00001 7fff0000000000000000000000000000 001000 00100
00000000000000000000000004000000 00001 7fff0000000000000000000000000000 001000 00100
00000000000000000000000008000000 00001 7fff0000000000000000000000000000 001000 00100
00000000000000000000000010000000 00001 7fff0000000000000000000000000000 001000 00100
00000000000000000000000020000000 00001 7fff0000000000000000000000000000 001000 00100
00000000000000000000000040000000 00001 7fff0000000000000000000000000000 001000 00100
00000000000000000000000080000000 00001 7fff0000000000000000000000000000 001000 00100
00000000000000000000000100000000 00001 7fff0000000000000000000000000000 001000 00100
00000000000000000000000200000000 00001 7fff0000000000000000000000000000 001000 00100
00000000000000000000000400000000 00001 7fff0000000000000000000000000000 001000 00100
00000000000000000000000800000000 00001 7fff0000000000000000000000000000 001000 00100
00000000000000000000001000000000 00001 7fff0000000000000000000000000000 001000 00100
00000000000000000000002000000000 00001 7fff0000000000000000000000000000 001000 00100
00000000000000000000004000000000 00001 7fff0000000000000000000000000000 001000 00100
00000000000000000000008000000000 00001 7fff0000000000000000000000000000 001000 00100
00000000000000000000010000000000 00001 7fff0000000000000000000000000000 001000 00100
00000000000000000000020000000000 00001 7fff0000000000000000000000000000 001000 00100
00000000000000000000040000000000 00001 7fff0000000000000000000000000000 001000 00100
00000000000000000000080000000000 00001 7fff0000000000000000000000000000 001000 00100
00000000000000000000100000000000 00001 7fff0000000000000000000000000000 001000 00100
00000000000000000000200000000000 00001 7fff0000000000000000000000000000 001000 00100
00000000000000000000400000000000 00001 7fff0000000000000000000000000000 001000 00100
00000000000000000000800000000000 00001 7fff0000000000000000000000000000 001000 00100
00000000000000000001000000000000 00001 7fff0000000000000000000000000000 001000 00100
00000000000000000002000000000000 00001 7fff0000000000000000000000000000 001000 00100
00000000000000000004000000000000 00001 7fff0000000000000000000000000000 001000 00100
00000000000000000008000000000000 00001 7fff0000000000000000000000000000 001000 00100
00000000000000000010000000000000 00001 7fff0000000000000000000000000000 001000 00100
00000000000000000020000000000000 00001 7fff0000000000000000000000000000 001000 00100
00000000000000000040000000000000 00001 7fff0000000000000000000000000000 001000 00100
00000000000000000080000000000000 00001 7fff0000000000000000000000000000 001000 00100
00000000000000000100000000000000 00001 7fff0000000000000000000000000000 001000 00100
00000000000000000200000000000000 00001 7fff0000000000000000000000000000 001000 00100
00000000000000000400000000000000 00001 7fff0000000000000000000000000000 001000 00100
00000000000000000800000000000000 00001 7fff0000000000000000000000000000 001000 00100
00000000000000001000000000000000 00001 7fff0000000000000000000000000000 001000 00100
00000000000000002000000000000000 00001 7fff0000000000000000000000000000 001000 00100
00000000000000004000000000000000 00001 7fff0000000000000000000000000000 001000 00100
00000000000000008000000000000000 00001 7fff0000000000000000000000000000 001000 00100
00000000000000010000000000000000 00001 7fff0000000000000000000000000000 001000 00100
00000000000000020000000000000000 00001 7fff0000000000000000000000000000 001000 00100
00000000000000040000000000000000 00001 7fff0000000000000000000000000000 001000 00100
00000000000000080000000000000000 00001 7fff0000000000000000000000000000 001000 00100
00000000000000100000000000000000 00001 7fff0000000000000000000000000000 001000 00100
00000000000000200000000000000000 00001 7fff0000000000000000000000000000 001000 00100
00000000000000400000000000000000 00001 7fff0000000000000000000000000000 001000 00100
00000000000000800000000000000000 00001 7fff0000000000000000000000000000 001000 00100
00000000000001000000000000000000 00001 7fff0000000000000000000000000000 001000 00100
00000000000002000000000000000000 00001 7fff0000000000000000000000000000 001000 00100
00000000000004000000000000000000 00001 7fff0000000000000000000000000000 001000 00100
00000000000008000000000000000000 00001 7fff0000000000000000000000000000 001000 00100
00000000000010000000000000000000 00001 7fff0000000000000000000000000000 001000 00100
00000000000020000000000000000000 00001 7fff0000000000000000000000000000 001000 00100
00000000000040000000000000000000 00001 7fff0000000000000000000000000000 001000 00100
00000000000080000000000000000000 00001 7fff0000000000000000000000000000 001000 00100
00000000000100000000000000000000 00001 7fff0000000000000000000000000000 001000 00100
00000000000200000000000000000000 00001 7fff0000000000000000000000000000 001000 00100
00000000000400000000000000000000 00001 7fff0000000000000000000000000000 001000 00100
00000000000800000000000000000000 00001 7fff0000000000000000000000000000 001000 00100
00000000001000000000000000000000 00001 7fff0000000000000000000000000000 001000 00100
00000000002000000000000000000000 00001 7fff0000000000000000000000000000 001000 00100
00000000004000000000000000000000 00001 7fff0000000000000000000000000000 001000 00100
00000000008000000000000000000000 00001 7fff0000000000000000000000000000 001000 00100
00000000010000000000000000000000 00001 7fff0000000000000000000000000000 001000 00100
00000000020000000000000000000000 00001 7fff0000000000000000000000000000 001000 00100
00000000040000000000000000000000 00001 7fff0000000000000000000000000000 001000 00100
00000000080000000000000000000000 00001 7fff0000000000000000000000000000 001000 00100
00000000100000000000000000000000 00001 7fff0000000000000000000000000000 001000 00100
00000000200000000000000000000000 00001 7fff0000000000000000000000000000 001000 00100
00000000400000000000000000000000 00001 7fff0000000000000000000000000000 001000 00100
00000000800000000000000000000000 00001 7fff0000000000000000000000000000 001000 00100
00000001000000000000000000000000 00001 7fff0000000000000000000000000000 001000 00100
00000002000000000000000000000000 00001 7fff0000000000000000000000000000 001000 00100
00000004000000000000000000000000 00001 7fff0000000000000000000000000000 001000 00100
00000008000000000000000000000000 00001 7fff0000000000000000000000000000 001000 00100
00000010000000000000000000000000 00001 7fff0000000000000000000000000000 001000 00100
00000020000000000000000000000000 00001 7fff0000000000000000000000000000 001000 00100
00000040000000000000000000000000 00001 7fff0000000000000000000000000000 001000 00100
00000080000000000000000000000000 00001 7fff0000000000000000000000000000 001000 00100
00000100000000000000000000000000 00001 7fff0000000000000000000000000000 001000 00100
00000200000000000000000000000000 00001 7fff0000000000000000000000000000 001000 00100
00000400000000000000000000000000 00001 7fff0000000000000000000000000000 001000 00100
00000800000000000000000000000000 00001 7fff0000000000000000000000000000 001000 00100
00001000000000000000000000000000 00001 7fff0000000000000000000000000000 001000 00100
00002000000000000000000000000000 00001 7fff0000000000000000000000000000 001000 00100
00004000000000000000000000000000 00001 7fff0000000000000000000000000000 001000 00100
00008000000000000000000000000000 00001 7ffe0000000000000000000000000000 000001 00000
3fff0000000000000000000000000000 00001 3fff0000000000000000000000000000 000001 00000
bfff0000000000000000000000000000 00001 bfff0000000000000000000000000000 000001 00000
4000921fb54442d18469898cc51701b8 00001 3ffd45f306dc9c882a53f84eafa3ea6a 000001 10000
4005c400000000000000000000000000 00001 3ff821fb78121fb78121fb78121fb781 000001 10000

End of tests :             61640000
